51.171597,6.721058,0.00km
51.160721,6.723289,1.22km
51.156631,6.716595,1.87km
51.147911,6.717796,2.84km
51.144249,6.723633,3.42km
51.138000,6.724663,4.12km
51.127121,6.737881,5.64km
51.126156,6.730499,6.17km
51.114948,6.745434,7.79km
51.111389,6.745090,8.19km
51.110313,6.754189,8.83km
51.102333,6.753159,9.72km
51.093822,6.752987,10.67km
51.092632,6.762085,11.32km
51.074730,6.759510,13.32km
51.071175,6.762772,13.77km
51.068691,6.758823,14.16km
51.065998,6.770496,15.03km
51.063946,6.782169,15.88km
51.039669,6.806374,19.07km
51.029736,6.817703,20.43km
51.025742,6.820107,20.90km
51.003601,6.801910,23.67km
50.998848,6.802425,24.20km
50.989559,6.811695,25.42km
50.975613,6.817875,27.03km
50.966534,6.827316,28.24km
50.959938,6.831779,29.04km
50.947399,6.830235,30.43km
50.937012,6.843109,31.90km
50.932251,6.856499,32.98km
50.919918,6.856155,34.35km
50.891338,6.874352,37.77km
50.881165,6.887741,39.24km
50.880077,6.892719,39.61km
50.868702,6.878471,41.22km
50.858521,6.877613,42.36km
50.839012,6.869888,44.59km
50.836517,6.866455,44.96km
50.834351,6.862335,45.34km
50.827625,6.859074,46.12km
50.816563,6.870747,47.60km
50.809513,6.876926,48.50km
50.800835,6.873150,49.50km
50.796822,6.882591,50.30km
50.784451,6.899929,52.13km
50.781956,6.898899,52.42km
50.776524,6.908512,53.33km
50.766865,6.912117,54.43km
50.762741,6.916924,55.00km
50.763718,6.922417,55.40km
50.759808,6.927223,55.95km
50.752968,6.954517,58.02km
50.753181,6.964817,58.74km
50.753403,6.964817,58.77km
50.754379,6.973400,59.38km
50.753181,6.978722,59.78km
50.754158,6.986103,60.31km
50.754379,6.993141,60.80km
50.747101,6.998634,61.70km
50.740692,7.003784,62.50km
50.736889,7.007389,62.99km
50.736237,7.014256,63.48km
50.733418,7.033138,64.85km
50.735699,7.044983,65.72km
50.736126,7.057514,66.60km
50.734821,7.061634,66.92km
50.728527,7.074337,68.06km
50.726025,7.074680,68.34km
50.722435,7.084637,69.15km
50.722111,7.087898,69.38km
50.719830,7.095795,69.99km
50.722328,7.099056,70.35km
50.723637,7.098713,70.50km
50.726025,7.115879,71.73km
